module github.com/anilaydinn/socium-be

// +heroku goVersion 1.17
go 1.17

require (
	github.com/dgrijalva/jwt-go v3.2.0+incompatible
	github.com/gofiber/fiber/v2 v2.32.0
	github.com/golang-jwt/jwt v3.2.2+incompatible
	github.com/smartystreets/goconvey v1.7.2
	go.mongodb.org/mongo-driver v1.7.4
	gopkg.in/mail.v2 v2.3.1
)

require gopkg.in/alexcesaro/quotedprintable.v3 v3.0.0-20150716171945-2caba252f4dc // indirect

require (
	github.com/andybalholm/brotli v1.0.4 // indirect
	github.com/go-stack/stack v1.8.0 // indirect
	github.com/golang/snappy v0.0.3 // indirect
	github.com/google/uuid v1.3.0
	github.com/gopherjs/gopherjs v0.0.0-20181017120253-0766667cb4d1 // indirect
	github.com/jtolds/gls v4.20.0+incompatible // indirect
	github.com/klauspost/compress v1.15.1 // indirect
	github.com/pkg/errors v0.9.1 // indirect
	github.com/smartystreets/assertions v1.2.0 // indirect
	github.com/valyala/bytebufferpool v1.0.0 // indirect
	github.com/valyala/fasthttp v1.35.0 // indirect
	github.com/valyala/tcplisten v1.0.0 // indirect
	github.com/xdg-go/pbkdf2 v1.0.0 // indirect
	github.com/xdg-go/scram v1.0.2 // indirect
	github.com/xdg-go/stringprep v1.0.2 // indirect
	github.com/youmark/pkcs8 v0.0.0-20181117223130-1be2e3e5546d // indirect
	golang.org/x/crypto v0.0.0-20220214200702-86341886e292
	golang.org/x/sync v0.0.0-20190911185100-cd5d95a43a6e // indirect
	golang.org/x/sys v0.0.0-20220422013727-9388b58f7150 // indirect
	golang.org/x/text v0.3.7 // indirect
)
